{
    "_id": "H8CPGJn81JSTCRNx",
    "data": {
        "attributes": {
            "ac": {
                "value": 10
            },
            "hardness": 0,
            "hasHealth": false,
            "hp": {
                "details": "",
                "max": 0,
                "temp": 0,
                "tempmax": 0,
                "value": 0
            },
            "stealth": {
                "details": "(trained)",
                "value": 24
            }
        },
        "creatureType": "",
        "details": {
            "description": "A Druidic glyph tries to transforms a trespasser into an animal.",
            "disable": "Thievery DC 32 (master) to drain the glyph's power harmlessly, or <i>dispel magic </i>(6th level; counteract DC 30) to counteract the glyph",
            "isComplex": false,
            "level": {
                "value": 12
            },
            "reset": "",
            "routine": ""
        },
        "saves": {
            "fortitude": {
                "saveDetail": "",
                "value": 0
            },
            "reflex": {
                "saveDetail": "",
                "value": 0
            },
            "will": {
                "saveDetail": "",
                "value": 0
            }
        },
        "source": {
            "value": "Pathfinder Core Rulebook"
        },
        "statusEffects": [],
        "traits": {
            "ci": [],
            "di": {
                "custom": "",
                "selected": {},
                "value": []
            },
            "dr": [],
            "dv": [],
            "rarity": {
                "value": "common"
            },
            "size": {
                "value": "med"
            },
            "traits": {
                "custom": "",
                "value": [
                    "magical"
                ]
            }
        }
    },
    "effects": [],
    "flags": {},
    "img": "systems/pf2e/icons/default-icons/hazard.svg",
    "items": [
        {
            "_id": "TxhvkFafggYWv5D7",
            "data": {
                "actionCategory": {
                    "value": ""
                },
                "actionType": {
                    "value": "reaction"
                },
                "actions": {
                    "value": null
                },
                "description": {
                    "value": "<p data-visibility=\"gm\"><strong>Trigger</strong> A creature moves within 30 feet of the glyph without speaking the passphrase in Druidic.</p>\n<p><strong>Effect</strong> The creature is targeted by <i>baleful polymorph</i> (<span data-pf2-check=\"will\" data-pf2-dc=\"32\" data-pf2-traits=\"primal,transmutation\" data-pf2-label=\"Baleful Polymorph DC\" data-pf2-show-dc=\"gm\">Will</span> save).</p>"
                },
                "requirements": {
                    "value": ""
                },
                "rules": [],
                "slug": null,
                "source": {
                    "value": ""
                },
                "traits": {
                    "custom": "",
                    "rarity": {
                        "value": "common"
                    },
                    "value": [
                        "primal",
                        "transmutation"
                    ]
                },
                "trigger": {
                    "value": ""
                },
                "weapon": {
                    "value": ""
                }
            },
            "effects": [],
            "flags": {},
            "img": "systems/pf2e/icons/actions/Reaction.webp",
            "name": "Baleful Polymorph",
            "sort": 100000,
            "type": "action"
        }
    ],
    "name": "Polymorph Trap",
    "token": {
        "disposition": 0,
        "height": 1,
        "img": "systems/pf2e/icons/default-icons/hazard.svg",
        "name": "Polymorph Trap",
        "width": 1
    },
    "type": "hazard"
}
