{
    "_id": "RIZDryL3Wnk6ucks",
    "data": {
        "abilities": {
            "cha": {
                "mod": 1
            },
            "con": {
                "mod": 3
            },
            "dex": {
                "mod": -5
            },
            "int": {
                "mod": -5
            },
            "str": {
                "mod": 3
            },
            "wis": {
                "mod": 0
            }
        },
        "attributes": {
            "ac": {
                "details": "",
                "value": 11
            },
            "allSaves": {
                "value": ""
            },
            "hp": {
                "details": "",
                "max": 80,
                "temp": 0,
                "value": 80
            },
            "initiative": {
                "ability": "perception"
            },
            "perception": {
                "value": 6
            },
            "shield": {
                "ac": 0,
                "brokenThreshold": 0,
                "hardness": 0,
                "max": 0,
                "value": 0
            },
            "speed": {
                "otherSpeeds": [],
                "value": "25 feet, climb 15 feet"
            }
        },
        "details": {
            "alignment": {
                "value": "N"
            },
            "blurb": "",
            "creatureType": "Ooze",
            "level": {
                "value": 4
            },
            "privateNotes": "",
            "publicNotes": "<p>Luminous oozes are strange globular creatures that glow with brilliant multicolored light. Unlike many oozes, which rely on camouflage and stealth to attack their prey, luminous oozes attract victims with their impressive light displays before blinding them and launching into a frenzied attack. They are often found on the ceilings or walls of dark caverns, and more than a few curious spelunkers have met their end simply by investigating their strange yet beautiful light. The effects of electricity on luminous oozes are ill understood, though those who have studied these creatures liken their static-absorbing power to that of lightning rods.</p>\n<p>These creatures are highly sought after by status-hungry socialites, flamboyant barkeeps, and daring showrunners, for in addition to being dangerous monsters, luminous oozes are also incredible sources of beautiful prismatic light, comparable to a magical light show but available for a fraction of the price. The trick, of course, is capturing and penning such a specimen. The most reliable means of caging a luminous ooze is with a permanent wall of force shaped into a cube or sphere, but few have the means to create or commission such an enclosure. Instead, most people who find themselves in possession of a luminous ooze simply put it in a thick glass box. As long as they are well fed, luminous oozes accept this treatment, though woe be unto anyone in the vicinity if a hungry luminous ooze should escape from its display case.</p>",
            "source": {
                "value": "Pathfinder #151: The Show Must Go On"
            }
        },
        "resources": {},
        "saves": {
            "fortitude": {
                "saveDetail": "",
                "value": 11
            },
            "reflex": {
                "saveDetail": "",
                "value": 3
            },
            "will": {
                "saveDetail": "",
                "value": 6
            }
        },
        "traits": {
            "ci": [],
            "di": {
                "custom": "",
                "value": [
                    "critical-hits",
                    "electricity",
                    "mental",
                    "precision",
                    "unconscious",
                    "visual"
                ]
            },
            "dr": [],
            "dv": [],
            "languages": {
                "custom": "",
                "selected": [],
                "value": []
            },
            "rarity": {
                "value": "common"
            },
            "senses": {
                "value": "motion sense 60 feet, no vision"
            },
            "size": {
                "value": "sm"
            },
            "traits": {
                "custom": "",
                "value": [
                    "mindless",
                    "ooze"
                ]
            }
        }
    },
    "effects": [],
    "flags": {},
    "img": "systems/pf2e/icons/default-icons/npc.svg",
    "items": [
        {
            "_id": "OkSGq1Wy2ceTrxFS",
            "data": {
                "attack": {
                    "value": ""
                },
                "attackEffects": {
                    "value": []
                },
                "bonus": {
                    "value": 13
                },
                "damageRolls": {
                    "ycg47tcvdpt4bfe6lgw7": {
                        "damage": "2d8+5",
                        "damageType": "bludgeoning"
                    }
                },
                "description": {
                    "value": ""
                },
                "rules": [],
                "slug": null,
                "source": {
                    "value": ""
                },
                "traits": {
                    "custom": "",
                    "rarity": {
                        "value": "common"
                    },
                    "value": []
                },
                "weaponType": {
                    "value": "melee"
                }
            },
            "effects": [],
            "flags": {},
            "img": "systems/pf2e/icons/default-icons/melee.svg",
            "name": "Pseudopod",
            "sort": 100000,
            "type": "melee"
        },
        {
            "_id": "hKCyP0kuF8Zoh3ey",
            "data": {
                "actionCategory": {
                    "value": "defensive"
                },
                "actionType": {
                    "value": "passive"
                },
                "actions": {
                    "value": null
                },
                "description": {
                    "value": "<p>5 feet. A luminous ooze constantly sheds distracting multicolored light. A creature that ends its turn within the aura must attempt a <span data-pf2-check=\"fortitude\" data-pf2-dc=\"21\" data-pf2-traits=\"aura,light,visual\" data-pf2-label=\"Bedazzling DC\" data-pf2-show-dc=\"gm\">Fortitude</span> save or become @Compendium[pf2e.conditionitems.Dazzled]{Dazzled} until the end of its next turn. On a critical failure, it instead becomes @Compendium[pf2e.conditionitems.Blinded]{Blinded} until the end of its next turn.</p>"
                },
                "requirements": {
                    "value": ""
                },
                "rules": [],
                "slug": null,
                "source": {
                    "value": ""
                },
                "traits": {
                    "custom": "",
                    "rarity": {
                        "value": "common"
                    },
                    "value": [
                        "aura",
                        "light",
                        "visual"
                    ]
                },
                "trigger": {
                    "value": ""
                },
                "weapon": {
                    "value": ""
                }
            },
            "effects": [],
            "flags": {},
            "img": "systems/pf2e/icons/default-icons/action.svg",
            "name": "Bedazzling",
            "sort": 200000,
            "type": "action"
        },
        {
            "_id": "tZyhBnoDUGVEDL7x",
            "data": {
                "actionCategory": {
                    "value": "defensive"
                },
                "actionType": {
                    "value": "passive"
                },
                "actions": {
                    "value": null
                },
                "description": {
                    "value": "<p>Whenever the luminous ooze's electricity immunity prevents it from taking damage, it gains 8 temporary HP. Until the end of its next turn, the luminous ooze's pseudopod Strike deals an additional [[/r {1d6}[electricity]]]{1d6 points of electricity damage}.</p>"
                },
                "requirements": {
                    "value": ""
                },
                "rules": [],
                "slug": null,
                "source": {
                    "value": ""
                },
                "traits": {
                    "custom": "",
                    "rarity": {
                        "value": "common"
                    },
                    "value": []
                },
                "trigger": {
                    "value": ""
                },
                "weapon": {
                    "value": ""
                }
            },
            "effects": [],
            "flags": {},
            "img": "systems/pf2e/icons/actions/Passive.webp",
            "name": "Lightning Catcher",
            "sort": 300000,
            "type": "action"
        },
        {
            "_id": "xX5Ycq93HKRAsmvI",
            "data": {
                "actionCategory": {
                    "value": "offensive"
                },
                "actionType": {
                    "value": "action"
                },
                "actions": {
                    "value": 2
                },
                "description": {
                    "value": "<p>The ooze glows with blinding brightness. All creatures within a 30-foot emanation must attempt a <span data-pf2-check=\"fortitude\" data-pf2-dc=\"21\" data-pf2-traits=\"light,visual\" data-pf2-label=\"Light Up DC\" data-pf2-show-dc=\"gm\">Fortitude</span> save.</p>\n<hr />\n<p><strong>Critical Success</strong> The creature is unaffected</p>\n<p><strong>Success</strong> The creature is @Compendium[pf2e.conditionitems.Dazzled]{Dazzled} until the end of its next turn.</p>\n<p><strong>Failure</strong> The creature is @Compendium[pf2e.conditionitems.Blinded]{Blinded} until the end of its next turn.</p>\n<p><strong>Critical Failure</strong> The creature is blinded for 1 minute.</p>"
                },
                "requirements": {
                    "value": ""
                },
                "rules": [],
                "slug": null,
                "source": {
                    "value": ""
                },
                "traits": {
                    "custom": "",
                    "rarity": {
                        "value": "common"
                    },
                    "value": [
                        "light",
                        "visual"
                    ]
                },
                "trigger": {
                    "value": ""
                },
                "weapon": {
                    "value": ""
                }
            },
            "effects": [],
            "flags": {},
            "img": "systems/pf2e/icons/default-icons/action.svg",
            "name": "Light Up",
            "sort": 400000,
            "type": "action"
        },
        {
            "_id": "dDVZPjPHfohFd3Yn",
            "data": {
                "description": {
                    "value": ""
                },
                "item": {
                    "value": 0
                },
                "mod": {
                    "value": 11
                },
                "proficient": {
                    "value": 0
                },
                "rules": [],
                "slug": null,
                "source": {
                    "value": ""
                },
                "traits": {
                    "custom": "",
                    "rarity": {
                        "value": "common"
                    },
                    "value": []
                }
            },
            "effects": [],
            "flags": {},
            "img": "systems/pf2e/icons/default-icons/lore.svg",
            "name": "Athletics",
            "sort": 500000,
            "type": "lore"
        }
    ],
    "name": "Luminous Ooze",
    "token": {
        "disposition": -1,
        "height": 1,
        "img": "systems/pf2e/icons/default-icons/npc.svg",
        "name": "Luminous Ooze",
        "width": 1
    },
    "type": "npc"
}
