{
    "_id": "YAKZUBOth75W2mWT",
    "data": {
        "abilities": {
            "cha": {
                "mod": 2
            },
            "con": {
                "mod": 4
            },
            "dex": {
                "mod": 1
            },
            "int": {
                "mod": 0
            },
            "str": {
                "mod": 3
            },
            "wis": {
                "mod": 1
            }
        },
        "attributes": {
            "ac": {
                "details": "",
                "value": 16
            },
            "allSaves": {
                "value": ""
            },
            "hp": {
                "details": "",
                "max": 55,
                "temp": 0,
                "value": 55
            },
            "initiative": {
                "ability": "perception"
            },
            "perception": {
                "value": 8
            },
            "shield": {
                "ac": 0,
                "brokenThreshold": 0,
                "hardness": 0,
                "max": 0,
                "value": 0
            },
            "speed": {
                "otherSpeeds": [],
                "value": "25 feet, burrow 15 feet"
            }
        },
        "details": {
            "alignment": {
                "value": "CE"
            },
            "blurb": "",
            "creatureType": "Fiend",
            "level": {
                "value": 3
            },
            "privateNotes": "",
            "publicNotes": "<p>Vermleks, also called worm demons, manifest from the souls of mortals who desecrated the dead, such as grave robbers or necromancers. These fiends take their violations to a new extreme, using their demonic powers to horrifically core their living victims and don the flesh-husk that remains.</p>\n<p>In its natural form, a vermlek resembles an oversized pinkish worm with four long tails that end in writhing fibrils. Its mouth splits into four segments like a profane tulip lined with rows of dozens of pointed teeth. More often than not, however, these fiends are encountered only after they have crawled into the body of a dead humanoid and made the hollowed-out flesh their temporary host. Vermleks use their powers of deception and disguise to infiltrate mortal settlements and influence unwitting acquaintances of the bodies they wear. Particularly intelligent or conniving vermleks might even reach stations of real power within the ranks of an army or government, at which point exposure of their true form can wreak havoc among the populace they have so thoroughly duped.</p>",
            "source": {
                "value": "Pathfinder #151: The Show Must Go On"
            }
        },
        "resources": {
            "focus": {
                "max": 1,
                "value": 1
            }
        },
        "saves": {
            "fortitude": {
                "saveDetail": "",
                "value": 11
            },
            "reflex": {
                "saveDetail": "",
                "value": 8
            },
            "will": {
                "saveDetail": "",
                "value": 6
            }
        },
        "traits": {
            "ci": [],
            "di": {
                "custom": "",
                "value": []
            },
            "dr": [],
            "dv": [
                {
                    "label": "Cold Iron",
                    "type": "coldiron",
                    "value": "5"
                },
                {
                    "label": "Good",
                    "type": "good",
                    "value": "5"
                }
            ],
            "languages": {
                "custom": "Telepathy 100 feet",
                "selected": [],
                "value": [
                    "abyssal",
                    "celestial",
                    "draconic"
                ]
            },
            "rarity": {
                "value": "common"
            },
            "senses": {
                "value": "darkvision"
            },
            "size": {
                "value": "med"
            },
            "traits": {
                "custom": "",
                "value": [
                    "demon",
                    "fiend"
                ]
            }
        }
    },
    "effects": [],
    "flags": {},
    "img": "systems/pf2e/icons/default-icons/npc.svg",
    "items": [
        {
            "_id": "RqsjlbJfjDXjttuD",
            "data": {
                "ability": {
                    "value": ""
                },
                "autoHeightenLevel": {
                    "value": null
                },
                "description": {
                    "value": ""
                },
                "displayLevel": {},
                "displayLevels": {},
                "item": {
                    "value": 0
                },
                "prepared": {
                    "value": "innate"
                },
                "proficiency": {
                    "value": 0
                },
                "rules": [],
                "showSlotlessLevels": {
                    "value": true
                },
                "showUnpreparedSpells": {
                    "value": false
                },
                "signatureSpells": {
                    "value": []
                },
                "slots": {
                    "slot0": {
                        "max": 0,
                        "prepared": [],
                        "value": 0
                    },
                    "slot1": {
                        "max": 0,
                        "prepared": [],
                        "value": 0
                    },
                    "slot10": {
                        "max": 0,
                        "prepared": [],
                        "value": 0
                    },
                    "slot11": {
                        "max": 0,
                        "prepared": [],
                        "value": 0
                    },
                    "slot2": {
                        "max": 0,
                        "prepared": [],
                        "value": 0
                    },
                    "slot3": {
                        "max": 0,
                        "prepared": [],
                        "value": 0
                    },
                    "slot4": {
                        "max": 0,
                        "prepared": [],
                        "value": 0
                    },
                    "slot5": {
                        "max": 0,
                        "prepared": [],
                        "value": 0
                    },
                    "slot6": {
                        "max": 0,
                        "prepared": [],
                        "value": 0
                    },
                    "slot7": {
                        "max": 0,
                        "prepared": [],
                        "value": 0
                    },
                    "slot8": {
                        "max": 0,
                        "prepared": [],
                        "value": 0
                    },
                    "slot9": {
                        "max": 0,
                        "prepared": [],
                        "value": 0
                    }
                },
                "slug": null,
                "source": {
                    "value": ""
                },
                "spelldc": {
                    "dc": "19",
                    "item": 0,
                    "mod": 0,
                    "value": 9
                },
                "tradition": {
                    "value": "divine"
                },
                "traits": {
                    "custom": "",
                    "rarity": {
                        "value": "common"
                    },
                    "value": []
                }
            },
            "effects": [],
            "flags": {},
            "img": "systems/pf2e/icons/default-icons/spellcastingEntry.svg",
            "name": "Divine Innate Spells",
            "sort": 100000,
            "type": "spellcastingEntry"
        },
        {
            "_id": "ze0baTsW4ysBZbFD",
            "data": {
                "ability": {
                    "value": ""
                },
                "area": {
                    "areaType": "",
                    "value": null
                },
                "autoHeightenLevel": {
                    "value": null
                },
                "category": {
                    "value": "spell"
                },
                "components": {
                    "focus": false,
                    "material": false,
                    "somatic": true,
                    "verbal": true
                },
                "cost": {
                    "value": ""
                },
                "damage": {
                    "value": {}
                },
                "description": {
                    "value": "<p>You plant fear in the target; it must attempt a Will save.</p>\n<hr /><strong>Critical Success</strong> The target is unaffected.\n<p><strong>Success</strong> The target is @Compendium[pf2e.conditionitems.Frightened]{Frightened 1}.</p>\n<p><strong>Failure</strong> The target is @Compendium[pf2e.conditionitems.Frightened]{Frightened 2}.</p>\n<p><strong>Critical Failure</strong> The target is @Compendium[pf2e.conditionitems.Frightened]{Frightened 3} and @Compendium[pf2e.conditionitems.Fleeing]{Fleeing} for 1 round.</p>\n<hr /><strong>Heightened</strong> You can target up to five creatures."
                },
                "duration": {
                    "value": "varies"
                },
                "hasCounteractCheck": {
                    "value": false
                },
                "level": {
                    "value": 3
                },
                "location": {
                    "value": "RqsjlbJfjDXjttuD"
                },
                "materials": {
                    "value": ""
                },
                "prepared": {
                    "value": ""
                },
                "range": {
                    "value": "30 feet"
                },
                "rules": [],
                "save": {
                    "basic": "",
                    "value": "will"
                },
                "school": {
                    "value": "enchantment"
                },
                "slug": null,
                "source": {
                    "value": "https://2e.aonprd.com/Spells.aspx?ID=110"
                },
                "spellType": {
                    "value": "save"
                },
                "sustained": {
                    "value": false
                },
                "target": {
                    "value": "1 creature"
                },
                "time": {
                    "value": "2"
                },
                "traditions": {
                    "value": [
                        "arcane",
                        "divine",
                        "occult",
                        "primal"
                    ]
                },
                "traits": {
                    "custom": "",
                    "rarity": {
                        "value": "common"
                    },
                    "value": [
                        "emotion",
                        "fear",
                        "mental"
                    ]
                }
            },
            "effects": [],
            "flags": {},
            "img": "systems/pf2e/icons/spells/fear.webp",
            "name": "Fear",
            "sort": 200000,
            "type": "spell"
        },
        {
            "_id": "FZoGvcKLG5L80iwm",
            "data": {
                "ability": {
                    "value": ""
                },
                "area": {
                    "areaType": "emanation",
                    "value": 30
                },
                "autoHeightenLevel": {
                    "value": null
                },
                "category": {
                    "value": "spell"
                },
                "components": {
                    "focus": false,
                    "material": false,
                    "somatic": false,
                    "verbal": false
                },
                "cost": {
                    "value": ""
                },
                "damage": {
                    "value": {
                        "0": {
                            "type": {
                                "categories": [],
                                "value": "negative"
                            },
                            "value": "1d8"
                        }
                    }
                },
                "description": {
                    "value": "<p>You channel negative energy to harm the living or heal the undead. If the target is a living creature, you deal 1d8 negative damage to it, and it gets a basic Fortitude save. If the target is a willing undead creature, you restore that amount of Hit Points. The number of actions you spend when Casting this Spell determines its targets, range, area, and other parameters.</p>\n<p><strong>1 Action</strong> (somatic) The spell has a range of touch.</p>\n<p><strong>2 Actions</strong> (verbal, somatic) The spell has a range of 30 feet. If you're healing an undead creature, increase the Hit Points restored by 8.</p>\n<p><strong>3 Actions</strong> (material, verbal, somatic) You disperse negative energy in a 30-foot emanation. This targets all living and undead creatures in the area.</p>\n<hr />\n<p><strong>Heightened</strong> The amount of healing or damage increases by 1d8, and the extra healing for the 2-action version increases by 8.</p>"
                },
                "duration": {
                    "value": ""
                },
                "hasCounteractCheck": {
                    "value": false
                },
                "level": {
                    "value": 3
                },
                "location": {
                    "value": "RqsjlbJfjDXjttuD"
                },
                "materials": {
                    "value": ""
                },
                "prepared": {
                    "value": ""
                },
                "range": {
                    "value": "varies"
                },
                "rules": [],
                "save": {
                    "basic": "",
                    "value": "fortitude"
                },
                "school": {
                    "value": "necromancy"
                },
                "slug": null,
                "source": {
                    "value": "https://2e.aonprd.com/Spells.aspx?ID=146"
                },
                "spellType": {
                    "value": "utility"
                },
                "sustained": {
                    "value": false
                },
                "target": {
                    "value": "1 living creature or 1 willing undead creature"
                },
                "time": {
                    "value": "1"
                },
                "traditions": {
                    "value": [
                        "divine"
                    ]
                },
                "traits": {
                    "custom": "",
                    "rarity": {
                        "value": "common"
                    },
                    "value": [
                        "negative"
                    ]
                }
            },
            "effects": [],
            "flags": {},
            "img": "systems/pf2e/icons/spells/harm.webp",
            "name": "Harm",
            "sort": 300000,
            "type": "spell"
        },
        {
            "_id": "XUhIXiVMEs1bgrP7",
            "data": {
                "attack": {
                    "value": ""
                },
                "attackEffects": {
                    "value": []
                },
                "bonus": {
                    "value": 12
                },
                "damageRolls": {
                    "ax6dpin3rufoi3n9ccn1": {
                        "damage": "2d8+3",
                        "damageType": "piercing"
                    }
                },
                "description": {
                    "value": ""
                },
                "rules": [],
                "slug": null,
                "source": {
                    "value": ""
                },
                "traits": {
                    "custom": "",
                    "rarity": {
                        "value": "common"
                    },
                    "value": []
                },
                "weaponType": {
                    "value": "melee"
                }
            },
            "effects": [],
            "flags": {},
            "img": "systems/pf2e/icons/default-icons/melee.svg",
            "name": "Bite",
            "sort": 400000,
            "type": "melee"
        },
        {
            "_id": "EHoVL9UXHlhPng6e",
            "data": {
                "attack": {
                    "value": ""
                },
                "attackEffects": {
                    "value": []
                },
                "bonus": {
                    "value": 14
                },
                "damageRolls": {
                    "geatkrzyyo6k1glugoxm": {
                        "damage": "2d6+3",
                        "damageType": "bludgeoning"
                    }
                },
                "description": {
                    "value": ""
                },
                "rules": [],
                "slug": null,
                "source": {
                    "value": ""
                },
                "traits": {
                    "custom": "",
                    "rarity": {
                        "value": "common"
                    },
                    "value": [
                        "agile"
                    ]
                },
                "weaponType": {
                    "value": "melee"
                }
            },
            "effects": [],
            "flags": {},
            "img": "systems/pf2e/icons/default-icons/melee.svg",
            "name": "Fist",
            "sort": 500000,
            "type": "melee"
        },
        {
            "_id": "Xe68wniGERn685DL",
            "data": {
                "attack": {
                    "value": ""
                },
                "attackEffects": {
                    "value": []
                },
                "bonus": {
                    "value": 12
                },
                "damageRolls": {
                    "wama9afgd4fcuzclapg2": {
                        "damage": "1d8+4",
                        "damageType": "slashing"
                    }
                },
                "description": {
                    "value": ""
                },
                "rules": [],
                "slug": null,
                "source": {
                    "value": ""
                },
                "traits": {
                    "custom": "",
                    "rarity": {
                        "value": "common"
                    },
                    "value": [
                        "versatile-p"
                    ]
                },
                "weaponType": {
                    "value": "melee"
                }
            },
            "effects": [],
            "flags": {},
            "img": "systems/pf2e/icons/default-icons/melee.svg",
            "name": "Longsword",
            "sort": 600000,
            "type": "melee"
        },
        {
            "_id": "38UzCSLYydGU7NfZ",
            "data": {
                "actionCategory": {
                    "value": "defensive"
                },
                "actionType": {
                    "value": "passive"
                },
                "actions": {
                    "value": null
                },
                "description": {
                    "value": "<p>Worm demons can't stand the sight of a good meal presented and then swiftly taken away. Whenever a dying creature within sight of the worm demon has its dying condition removed, the worm demon takes [[/r {1d6}[mental]]]{1d6 mental damage}.</p>"
                },
                "requirements": {
                    "value": ""
                },
                "rules": [],
                "slug": null,
                "source": {
                    "value": ""
                },
                "traits": {
                    "custom": "",
                    "rarity": {
                        "value": "common"
                    },
                    "value": []
                },
                "trigger": {
                    "value": ""
                },
                "weapon": {
                    "value": ""
                }
            },
            "effects": [],
            "flags": {},
            "img": "systems/pf2e/icons/actions/Passive.webp",
            "name": "Recoil from Wasted Opportunities",
            "sort": 700000,
            "type": "action"
        },
        {
            "_id": "0eCHhLgu7JC3do8q",
            "data": {
                "actionCategory": {
                    "value": "offensive"
                },
                "actionType": {
                    "value": "action"
                },
                "actions": {
                    "value": 2
                },
                "description": {
                    "value": "<p><strong>Requirement</strong> The worm demon is Inhabiting a Body; <strong>Effect</strong> The worm demon crawls out of the body it is inhabiting, devouring much of the body's remaining flesh and regaining 10 Hit Points in the process. The corpse it leaves behind is little more than a husk.</p>"
                },
                "requirements": {
                    "value": ""
                },
                "rules": [],
                "slug": null,
                "source": {
                    "value": ""
                },
                "traits": {
                    "custom": "",
                    "rarity": {
                        "value": "common"
                    },
                    "value": [
                        "manipulate"
                    ]
                },
                "trigger": {
                    "value": ""
                },
                "weapon": {
                    "value": ""
                }
            },
            "effects": [],
            "flags": {},
            "img": "systems/pf2e/icons/default-icons/action.svg",
            "name": "Abandon Body",
            "sort": 800000,
            "type": "action"
        },
        {
            "_id": "yVbYX4gSvL0pm4Py",
            "data": {
                "actionCategory": {
                    "value": "offensive"
                },
                "actionType": {
                    "value": "action"
                },
                "actions": {
                    "value": 3
                },
                "description": {
                    "value": "<p>The worm demon crawls into the body of an adjacent dead Medium humanoid, consuming the bulk of the victim's skeleton and internal organs as it does so and cramming itself into the cavity. As long as it Inhabits a Body, the worm demon loses its bite attack, can wield weapons like a humanoid, gains a +3 circumstance bonus to AC, and gains a +3 circumstance bonus to Deception checks to Impersonate the creature it is inhabiting. It cannot use this ability if it is already Inhabiting a Body.</p>"
                },
                "requirements": {
                    "value": ""
                },
                "rules": [],
                "slug": null,
                "source": {
                    "value": ""
                },
                "traits": {
                    "custom": "",
                    "rarity": {
                        "value": "common"
                    },
                    "value": [
                        "manipulate"
                    ]
                },
                "trigger": {
                    "value": ""
                },
                "weapon": {
                    "value": ""
                }
            },
            "effects": [],
            "flags": {},
            "img": "systems/pf2e/icons/default-icons/action.svg",
            "name": "Inhabit Body",
            "sort": 900000,
            "type": "action"
        },
        {
            "_id": "WmQ1U0HMX7ayTqMC",
            "data": {
                "actionCategory": {
                    "value": "offensive"
                },
                "actionType": {
                    "value": "action"
                },
                "actions": {
                    "value": 3
                },
                "description": {
                    "value": "<p>Whenever the vermlek Abandons a Body or Inhabits a Body, all creatures within 30 feet who can see the vermlek must succeed at a <span data-pf2-check=\"will\" data-pf2-dc=\"19\" data-pf2-traits=\"emotion,fear,mental,visual\" data-pf2-label=\"Unsettling Movement DC\" data-pf2-show-dc=\"gm\">Will</span> save or become @Compendium[pf2e.conditionitems.Frightened]{Frightened 1}. On a critical failure, the creature is frightened 1 and @Compendium[pf2e.conditionitems.Sickened]{Sickened 1}. Regardless of the result, creatures are immune to the same vermlek's unsettling movement for 24 hours.</p>"
                },
                "requirements": {
                    "value": ""
                },
                "rules": [],
                "slug": null,
                "source": {
                    "value": ""
                },
                "traits": {
                    "custom": "",
                    "rarity": {
                        "value": "common"
                    },
                    "value": [
                        "emotion",
                        "fear",
                        "mental",
                        "visual"
                    ]
                },
                "trigger": {
                    "value": ""
                },
                "weapon": {
                    "value": ""
                }
            },
            "effects": [],
            "flags": {},
            "img": "systems/pf2e/icons/default-icons/action.svg",
            "name": "Unsettling Movement",
            "sort": 1000000,
            "type": "action"
        },
        {
            "_id": "T7ovEVrPmycgLuji",
            "data": {
                "description": {
                    "value": ""
                },
                "item": {
                    "value": 0
                },
                "mod": {
                    "value": 8
                },
                "proficient": {
                    "value": 0
                },
                "rules": [],
                "slug": null,
                "source": {
                    "value": ""
                },
                "traits": {
                    "custom": "",
                    "rarity": {
                        "value": "common"
                    },
                    "value": []
                }
            },
            "effects": [],
            "flags": {},
            "img": "systems/pf2e/icons/default-icons/lore.svg",
            "name": "Acrobatics",
            "sort": 1100000,
            "type": "lore"
        },
        {
            "_id": "qZfYSg3Wv0jVKRIL",
            "data": {
                "description": {
                    "value": ""
                },
                "item": {
                    "value": 0
                },
                "mod": {
                    "value": 10
                },
                "proficient": {
                    "value": 0
                },
                "rules": [],
                "slug": null,
                "source": {
                    "value": ""
                },
                "traits": {
                    "custom": "",
                    "rarity": {
                        "value": "common"
                    },
                    "value": []
                }
            },
            "effects": [],
            "flags": {},
            "img": "systems/pf2e/icons/default-icons/lore.svg",
            "name": "Athletics",
            "sort": 1200000,
            "type": "lore"
        },
        {
            "_id": "OUAUqe08Aktnirvq",
            "data": {
                "description": {
                    "value": ""
                },
                "item": {
                    "value": 0
                },
                "mod": {
                    "value": 7
                },
                "proficient": {
                    "value": 0
                },
                "rules": [],
                "slug": null,
                "source": {
                    "value": ""
                },
                "traits": {
                    "custom": "",
                    "rarity": {
                        "value": "common"
                    },
                    "value": []
                }
            },
            "effects": [],
            "flags": {},
            "img": "systems/pf2e/icons/default-icons/lore.svg",
            "name": "Deception",
            "sort": 1300000,
            "type": "lore"
        },
        {
            "_id": "5CxqY9UZvF2IUlXk",
            "data": {
                "description": {
                    "value": ""
                },
                "item": {
                    "value": 0
                },
                "mod": {
                    "value": 8
                },
                "proficient": {
                    "value": 0
                },
                "rules": [],
                "slug": null,
                "source": {
                    "value": ""
                },
                "traits": {
                    "custom": "",
                    "rarity": {
                        "value": "common"
                    },
                    "value": []
                }
            },
            "effects": [],
            "flags": {},
            "img": "systems/pf2e/icons/default-icons/lore.svg",
            "name": "Stealth",
            "sort": 1400000,
            "type": "lore"
        }
    ],
    "name": "Vermlek",
    "token": {
        "disposition": -1,
        "height": 1,
        "img": "systems/pf2e/icons/default-icons/npc.svg",
        "name": "Vermlek",
        "width": 1
    },
    "type": "npc"
}
