{
    "_id": "HL2l2VRSaQHu9lUw",
    "data": {
        "active": true,
        "alsoApplies": {
            "linked": [],
            "unlinked": []
        },
        "base": "Fatigued",
        "description": {
            "value": "<p>You're tired and can't summon much energy. You take a -1 status penalty to AC and saving throws. While exploring, you can't choose an exploration activity.</p>\n<p>You recover from fatigue after a full night's rest.</p>"
        },
        "duration": {
            "perpetual": true,
            "text": "",
            "value": 0
        },
        "group": "",
        "hud": {
            "img": {
                "useStatusName": true,
                "value": "systems/pf2e/icons/conditions-2/fatigued.webp"
            },
            "selectable": true,
            "statusName": "fatigued"
        },
        "modifiers": [
            {
                "group": "ac",
                "type": "status",
                "value": -1
            },
            {
                "group": "fortitude",
                "type": "status",
                "value": -1
            },
            {
                "group": "reflex",
                "type": "status",
                "value": -1
            },
            {
                "group": "will",
                "type": "status",
                "value": -1
            }
        ],
        "overrides": [],
        "references": {
            "children": [],
            "immunityFrom": [],
            "overriddenBy": [],
            "overrides": []
        },
        "removable": true,
        "rules": [],
        "source": {
            "value": ""
        },
        "sources": {
            "hud": true
        },
        "traits": {
            "custom": "",
            "rarity": {
                "value": "common"
            },
            "value": []
        },
        "value": {
            "immutable": false,
            "isValued": false,
            "modifiers": [],
            "value": null
        }
    },
    "effects": [],
    "flags": {
        "pf2e": {
            "condition": true
        }
    },
    "img": "systems/pf2e/icons/conditions/fatigued.webp",
    "name": "Fatigued",
    "type": "condition"
}
