{
    "_id": "craWRj7jI2mLs1Ok",
    "data": {
        "activation": {
            "condition": "",
            "cost": 0,
            "type": ""
        },
        "autoDestroy": {
            "_deprecated": true,
            "value": true
        },
        "autoUse": {
            "_deprecated": true,
            "value": true
        },
        "baseItem": null,
        "brokenThreshold": {
            "value": 0
        },
        "bulkCapacity": {
            "value": ""
        },
        "charges": {
            "_deprecated": true,
            "max": 0,
            "value": 0
        },
        "collapsed": {
            "value": false
        },
        "consumableType": {
            "value": "potion"
        },
        "consume": {
            "_deprecated": true,
            "value": ""
        },
        "containerId": {
            "value": null
        },
        "description": {
            "value": "<p>This snare is made of magnetized weights and heavy ropes rigged to a trip wire or pressure plate. When a creature enters the square, the magnets and ropes deploy, weighing down the creature's weapons and limbs. The creature must attempt a <span data-pf2-check=\"reflex\" data-pf2-traits=\"consumable,kobold,mechanical,snare,trap\" data-pf2-label=\"Deadweight Snare DC\" data-pf2-dc=\"18\" data-pf2-show-dc=\"all\">Reflex</span> save.</p>\n<hr />\n<p><strong>Critical Success</strong> The creature is unaffected.</p>\n<p><strong>Success</strong> The creature takes a -1 status penalty to attack rolls for 1 round or until it Escapes (DC 18).</p>\n<p>@Compendium[pf2e.equipment-effects.Effect: Deadweight Snare (Success)]{Effect: Deadweight Snare (Success)}</p>\n<p><strong>Failure</strong> The creature takes a -2 status penalty to attack rolls for 1 minute or until it Escapes (DC 18).</p>\n<p><strong>Critical Failure</strong> As failure, but the creature drops any metallic items it's holding.</p>\n<p>@Compendium[pf2e.equipment-effects.Effect: Deadweight Snare (Failure/Critical Failure)]{Effect: Deadweight Snare (Failure/Critical Failure)}</p>"
        },
        "duration": {
            "units": "",
            "value": null
        },
        "equipped": {
            "value": false
        },
        "equippedBulk": {
            "value": ""
        },
        "hardness": {
            "value": 0
        },
        "hp": {
            "value": 0
        },
        "identification": {
            "misidentified": {},
            "status": "identified",
            "unidentified": {
                "data": {
                    "description": {
                        "value": ""
                    }
                },
                "img": "",
                "name": ""
            }
        },
        "level": {
            "value": 2
        },
        "maxHp": {
            "value": 0
        },
        "negateBulk": {
            "value": "0"
        },
        "preciousMaterial": {
            "value": null
        },
        "preciousMaterialGrade": {
            "value": null
        },
        "price": {
            "value": "6 gp"
        },
        "quantity": {
            "value": 1
        },
        "range": {
            "long": null,
            "units": "",
            "value": null
        },
        "rules": [],
        "size": {
            "value": "med"
        },
        "source": {
            "value": "Pathfinder Lost Omens: The Grand Bazaar"
        },
        "spell": {
            "data": null,
            "heightenedLevel": null
        },
        "stackGroup": {
            "value": ""
        },
        "target": {
            "type": "",
            "units": "",
            "value": null
        },
        "traits": {
            "custom": "",
            "rarity": {
                "value": "uncommon"
            },
            "value": [
                "consumable",
                "kobold",
                "mechanical",
                "snare",
                "trap"
            ]
        },
        "usage": {
            "value": "held-in-one-hand"
        },
        "uses": {
            "autoDestroy": true,
            "autoUse": true,
            "max": 0,
            "per": null,
            "value": 0
        },
        "weight": {
            "value": "-"
        }
    },
    "effects": [],
    "flags": {},
    "img": "systems/pf2e/icons/default-icons/consumable.svg",
    "name": "Deadweight Snare",
    "type": "consumable"
}
