{
    "_id": "wTYxAWrdsQ6SLVr9",
    "data": {
        "baseItem": null,
        "brokenThreshold": {
            "value": 0
        },
        "bulkCapacity": {
            "value": ""
        },
        "collapsed": {
            "value": false
        },
        "containerId": {
            "value": null
        },
        "description": {
            "value": "<p><strong>Access</strong> Alijae ethnicity</p>\n<hr />\n<p>These large masks are forged of precious metals or carved of wood and tasked with guarding the history of a family. Most Alijae are granted a genealogy mask when they come of age, which they bequeath to their next of kin upon death. When a member of the family recounted in the genealogy mask performs a particularly significant event while wearing the mask, its eyes and ears animate, allowing the item to witness and record the deeds for posterity. Different families have different standards for their genealogy masks-some may value accuracy and objective, clinical facts, while others may relish embellishing their stories to the very brink of believability in the name of a good story.</p>\n<hr />\n<p><strong>Activate</strong> <span class=\"pf2-icon\">1</span> command;</p>\n<p><strong>Frequency</strong> once per day;</p>\n<p><strong>Effect</strong> You ask the mask about the deeds of a particular ancestor, and the mask speaks for 10 minutes, recalling the tales it knows about that ancestor. The mask is limited by what information a particular ancestor shared with it.</p>\n<hr />\n<p><strong>Craft Requirements</strong> Supply a casting of <em>@Compendium[pf2e.spells-srd.Ancestral Memories]{Ancestral Memories}</em> or <em>@Compendium[pf2e.spells-srd.Mindlink]{Mindlink}</em>. You must be an Alijae elf.</p>"
        },
        "equipped": {
            "value": false
        },
        "equippedBulk": {
            "value": ""
        },
        "hardness": {
            "value": 0
        },
        "hp": {
            "value": 0
        },
        "identification": {
            "misidentified": {},
            "status": "identified",
            "unidentified": {
                "data": {
                    "description": {
                        "value": ""
                    }
                },
                "img": "",
                "name": ""
            }
        },
        "invested": {
            "value": null
        },
        "level": {
            "value": 1
        },
        "maxHp": {
            "value": 0
        },
        "negateBulk": {
            "value": "0"
        },
        "preciousMaterial": {
            "value": null
        },
        "preciousMaterialGrade": {
            "value": null
        },
        "price": {
            "value": "10 gp"
        },
        "quantity": {
            "value": 1
        },
        "rules": [],
        "size": {
            "value": "med"
        },
        "source": {
            "value": "Pathfinder Lost Omens: The Mwangi Expanse"
        },
        "stackGroup": {
            "value": ""
        },
        "traits": {
            "custom": "",
            "rarity": {
                "value": "uncommon"
            },
            "value": [
                "divination",
                "invested"
            ]
        },
        "usage": {
            "value": "worn"
        },
        "weight": {
            "value": "L"
        }
    },
    "effects": [],
    "flags": {},
    "img": "systems/pf2e/icons/default-icons/equipment.svg",
    "name": "Genealogy Mask",
    "type": "equipment"
}
