{
    "_id": "ge0PEbPmxFLhyy4X",
    "data": {
        "baseItem": null,
        "brokenThreshold": {
            "value": 0
        },
        "bulkCapacity": {
            "value": ""
        },
        "collapsed": {
            "value": false
        },
        "containerId": {
            "value": null
        },
        "description": {
            "value": "<p>These tiny round balls are made of polished stone and colorful glass, and come in a bag of 200. You can pour marbles in an empty square adjacent to you with an Interact action. The first creature that moves into that square must succeed at a <span data-pf2-check=\"acrobatics\" data-pf2-label=\"Marbles DC\" data-pf2-dc=\"13\" data-pf2-show-dc=\"gm\">Acrobatics</span> check or <span data-pf2-check=\"reflex\" data-pf2-label=\"Marbles DC\" data-pf2-dc=\"13\" data-pf2-show-dc=\"gm\">Reflex</span> save (its choice) or fall @Compendium[pf2e.conditionitems.Prone]{Prone}. Once a creature enters a space with marbles, enough marbles are scattered that other creatures moving into that space don't need to attempt a roll to avoid falling.</p>"
        },
        "equipped": {
            "value": false
        },
        "equippedBulk": {
            "value": ""
        },
        "hardness": {
            "value": 0
        },
        "hp": {
            "value": 0
        },
        "identification": {
            "misidentified": {},
            "status": "identified",
            "unidentified": {
                "data": {
                    "description": {
                        "value": ""
                    }
                },
                "img": "",
                "name": ""
            }
        },
        "invested": {
            "value": null
        },
        "level": {
            "value": 0
        },
        "maxHp": {
            "value": 0
        },
        "negateBulk": {
            "value": "0"
        },
        "preciousMaterial": {
            "value": null
        },
        "preciousMaterialGrade": {
            "value": null
        },
        "price": {
            "value": "2 sp"
        },
        "quantity": {
            "value": 1
        },
        "rules": [],
        "size": {
            "value": "med"
        },
        "source": {
            "value": "Pathfinder Lost Omens: The Grand Bazaar"
        },
        "stackGroup": {
            "value": ""
        },
        "traits": {
            "custom": "",
            "rarity": {
                "value": "common"
            },
            "value": []
        },
        "usage": {
            "value": "held-in-one-hand"
        },
        "weight": {
            "value": "L"
        }
    },
    "effects": [],
    "flags": {},
    "img": "systems/pf2e/icons/default-icons/equipment.svg",
    "name": "Marbles",
    "type": "equipment"
}
