{
    "_id": "Zu6feO9NUZJlsKuc",
    "data": {
        "actionCategory": {
            "value": "offensive"
        },
        "actionType": {
            "value": "action"
        },
        "actions": {
            "value": 1
        },
        "description": {
            "value": "<p>The worm that walks Strides, ending its movement sharing a space with a creature, and deals piercing damage to the creature equal to [[/r {1d8}[piercing]]]{1d8 piercing} plus an additional 1d8 for every 3 levels the worm that walks has. The creature can attempt a <span data-pf2-check=\"reflex\" data-pf2-dc=\"\" data-pf2-traits=\"damaging-effect\" data-pf2-label=\"Squirming Embrace DC\" data-pf2-show-dc=\"gm\">basic Reflex</span> save with a DC of the worm that walks's spell DC - 2.</p>"
        },
        "requirements": {
            "value": ""
        },
        "rules": [],
        "source": {
            "value": "Pathfinder Bestiary 2"
        },
        "traits": {
            "custom": "",
            "rarity": {
                "value": "common"
            },
            "value": []
        },
        "trigger": {
            "value": ""
        }
    },
    "effects": [],
    "flags": {},
    "img": "systems/pf2e/icons/actions/OneAction.webp",
    "name": "(Worm That Walks) Squirming Embrace",
    "type": "action"
}
