{
    "_id": "MhymIeTQoxbacG1o",
    "data": {
        "actionCategory": {
            "value": "defensive"
        },
        "actionType": {
            "value": "passive"
        },
        "actions": {
            "value": null
        },
        "description": {
            "value": "<div data-visibility=\"gm\">\n<p>The zombie carries a plague that can create more of its own kind.</p>\n<p>This functions as the @Compendium[pf2e.pathfinder-bestiary.Plague Zombie]{Plague Zombie's} zombie rot, except at stage 5, the victim rises as another of the zombie's type, rather than a plague zombie.</p>\n<hr />\n<p><strong>Zombie Rot</strong></p>\n<p>An infected creature can't heal damage it takes from zombie rot until it has been cured of the disease.</p>\n</div>\n<p><strong>Saving Throw</strong> <span data-pf2-check=\"fortitude\" data-pf2-dc=\"\" data-pf2-traits=\"disease,necromancy\" data-pf2-label=\"Zombie Rot DC\" data-pf2-show-dc=\"gm\">Fortitude</span>;</p>\n<div data-visibility=\"gm\">\n<p><strong>Stage 1</strong> carrier with no ill effect (1 day);</p>\n<p><strong>Stage 2</strong> [[/r {1d6}[negative]]]{1d6 negative damage} (1 day);</p>\n<p><strong>Stage 3</strong> [[/r {1d6}[negative]]]{1d6 negative damage} (1 day);</p>\n<p><strong>Stage 4</strong> [[/r {1d6}[negative]]]{1d6 negative damage} (1 day);</p>\n<p><strong>Stage 5</strong> dead, rising as another of the zombie's type immediately</p>\n</div>"
        },
        "requirements": {
            "value": ""
        },
        "rules": [],
        "source": {
            "value": "Pathfinder Bestiary"
        },
        "traits": {
            "custom": "",
            "rarity": {
                "value": "common"
            },
            "value": [
                "disease",
                "necromancy"
            ]
        },
        "trigger": {
            "value": ""
        },
        "weapon": {
            "value": ""
        }
    },
    "effects": [],
    "flags": {},
    "img": "systems/pf2e/icons/actions/Passive.webp",
    "name": "(Zombie) Plague-Ridden",
    "type": "action"
}
