{
    "_id": "pjR0QGXE58oWS8uU",
    "content": "<table class=\"pf2-table\">\n<thead>\n<tr>\n<th>\n<h3><strong>Name</strong></h3>\n</th>\n<th>\n<h3><strong>Crit Effect</strong></h3>\n</th>\n<th>\n<h3><strong>Type</strong></h3>\n</th>\n</tr>\n</thead>\n<tbody>\n<tr>\n<td>\n<h3 style=\"box-sizing: border-box; user-select: text; color: #191813;\">Bell Ringer</h3>\n</td>\n<td>\n<h3>The target is sickened 2, and it is stupefied 2 until it is no longer sickened.</h3>\n</td>\n<td>\n<h3>Bludgeoning</h3>\n</td>\n</tr>\n<tr>\n<td>\n<h3>Skewered</h3>\n</td>\n<td>\n<h3>Triple damage. The target is slowed 1 for 1 round.</h3>\n</td>\n<td>\n<h3>Piercing</h3>\n</td>\n</tr>\n<tr>\n<td>\n<h3>Momentum</h3>\n</td>\n<td>\n<h3>You gain a +2 circumstance bonus to all attack rolls until the end of your next turn.</h3>\n</td>\n<td>\n<h3>Slashing</h3>\n</td>\n</tr>\n<tr>\n<td>\n<h3>Petrified</h3>\n</td>\n<td>\n<h3>The target is petrified for 10 minutes.</h3>\n</td>\n<td>\n<h3>Bomb or Spell</h3>\n</td>\n</tr>\n</tbody>\n</table>\n<h3 style=\"text-align: left;\"> </h3>",
    "flags": {},
    "name": "Critical Hit Deck #7",
    "permission": {
        "default": 0
    }
}
