{
    "_id": "YpuEmI1fJBZD3kMc",
    "data": {
        "actionCategory": {
            "value": "offensive"
        },
        "actionType": {
            "value": "action"
        },
        "actions": {
            "value": 1
        },
        "description": {
            "value": "<p>Stretching to extend its body to its limits, your eidolon attacks a foe that would normally be beyond its reach. Your eidolon makes a melee unarmed Strike, increasing its reach by 5 feet for that Strike.</p>\n<p>If the unarmed attack has the disarm, shove, or trip trait, the eidolon can use the corresponding action instead of a Strike.</p>"
        },
        "requirements": {
            "value": ""
        },
        "rules": [],
        "source": {
            "value": ""
        },
        "traits": {
            "custom": "",
            "rarity": {
                "value": "common"
            },
            "value": [
                "eidolon"
            ]
        },
        "trigger": {
            "value": ""
        },
        "weapon": {
            "value": ""
        }
    },
    "effects": [],
    "flags": {},
    "img": "systems/pf2e/icons/actions/OneAction.webp",
    "name": "Tendril Strike",
    "type": "action"
}
