{
    "_id": "F8nQOLVWmpp9G5hZ",
    "data": {
        "description": {
            "value": "<p>If you choose to Demoralize, you gain a +3 item bonus to the Intimidation check.</p>"
        },
        "duration": {
            "expiry": "turn-end",
            "sustained": false,
            "unit": "rounds",
            "value": 1
        },
        "level": {
            "value": 13
        },
        "rules": [
            {
                "key": "FlatModifier",
                "label": "Greater Dragon's Blood Pudding Intmidation",
                "predicate": {
                    "all": [
                        "action:demoralize"
                    ]
                },
                "selector": "intimidation",
                "type": "item",
                "value": 3
            }
        ],
        "source": {
            "value": ""
        },
        "start": {
            "initiative": null,
            "value": 0
        },
        "target": null,
        "tokenIcon": {
            "show": false
        },
        "traits": {
            "custom": "",
            "rarity": {
                "value": "common"
            },
            "value": []
        }
    },
    "effects": [],
    "flags": {},
    "img": "systems/pf2e/icons/default-icons/effect.svg",
    "name": "Effect: Dragon's Blood Pudding (Greater)",
    "type": "effect"
}
