{
    "_id": "39z55kowQFOUH2v0",
    "content": "<h1>Droskar (The Dark Smith) [NE]</h1><p>Cast out and cursed by @Compendium[pf2e.deities.Torag]{Torag}, the Dark Smith works constantly to prove his significance, cheating and enslaving others to further his goal</p><p><strong>Edicts</strong> achieve goals at any cost, continually improve your abilities, establish dominance, work ceaselessly</p><p><strong>Anathema</strong> fail to work toward goals or grow in skill, relax excessively or give into sloth</p><p><strong>Follower Alignments</strong> LE, NE, CE</span></p><p></span></p><h2>Devotee Benefits</h2><div><div><strong>Divine Ability</strong> Constitution or Intelligence</div><div><strong>Divine Font</strong> harm</div><div><strong>Divine Skill</strong> Crafting</div><div><strong>Favored Weapon</strong> light hammer</div><div><strong>Domains</strong> duty, earth, trickery, tyranny</div><div><strong>Alternate Domains</strong> ambition, fire, toil</div><div><strong>Cleric Spells</strong> 1st: ant haul, 3rd: haste, 6th: dominate</div></div>",
    "flags": {},
    "name": "Droskar",
    "permission": {
        "default": 0
    }
}
