{
    "_id": "tcvobm8O84qv0aO5",
    "content": "<h1>Gruhastha (The Keeper) [LG]</h1><p></span>Gruhastha the Keeper is a deity of understanding, peace, and the collective pursuit of enlightenment. The once-mortal nephew of @Compendium[pf2e.deities.Irori]{Irori} is believed to have ascended to godhood himself after creating the holy book <em>Azvadeva Pujila</em>, fully embodying all divine wisdom within the text. Originating in Vudra, the Keeper's faith has slowly gained popularity in the Inner Sea region, particularly in Jalmeray, where Irori already has a wide following. Gruhastha manifests as a human man with an idealized form, augmented with wings of red and green plumage and a golden mandala as a halo.</p><p><strong>Edicts</strong> work toward collective transcendence, expose and root out malicious lies, challenge oppression through education, protect knowledge, seek truth</p><p><strong>Anathema</strong> deny a sincere student education, destroy knowledge, disrespect the traditions of those around you, willfully spread ignorance or wrong information</p><p><strong>Areas of Concern</strong> enlightenment, the Vudrani holy book</p><p><strong>Follower Alignments</strong> LG, NG</span></p><p></span></p><h2>Devotee Benefits</h2><div><div><strong>Divine Ability</strong> Intelligence or Wisdom</div><div><strong>Divine Font</strong> heal</div><div><strong>Divine Skill</strong> Society</div><div><strong>Favored Weapon</strong> shortbow</div><div><strong>Domains</strong> glyph, knowledge, perfection, truth</div><div><strong>Alternate Domains</strong> nature, travel</div><div><strong>Cleric Spells</strong> 1st: share lore, 2nd: comprehend language, 3rd: hypercognition</div></div><h2>Divine Intercession</h2><p>The Keeper encourages the search for knowledge and rewards those that travel their personal path of enlightenment, but he punishes those who interrupt these journeys or destroy knowledge.</p><p><strong>Minor Boon</strong>: Books fall open to insightful passages, and memories spring to mind when they are most needed. Once, when you fail a check to Recall Knowledge, you critically succeed instead. Gruhastha typically grants this boon for an extremely consequential attempt to Recall Knowledge, particularly when misinformation would have dire consequences.</p><p><strong>Moderate Boon</strong>: The Keeper speeds your path toward learning new talents. You become permanently trained in two additional skills of your choice. Additionally, you can select a skill you are already trained in and permanently increase your proficiency rank in that skill, following the usual rules for skill increases.</p><p><strong>Major Boon</strong>: You are a divine inspiration to others around you. When attempting any checks to Recall Knowledge, you can roll twice and use the better result; this is a fortune effect. Additionally, allies within 60 feet gain a +2 status bonus to Will saves.</p><p><strong>Minor Curse</strong>: As you stray from the truth, dissonant notes seem to interrupt you whenever you speak. You take a -2 status penalty to all Deception checks.</p><p><strong>Moderate Curse</strong>: Enlightenment begins to elude you, leaving you at a loss for knowledge. Whenever you attempt a check to Recall Knowledge, you use a result one degree of success worse than the result you rolled.</p><p><strong>Major Curse</strong>: The written word turns against you, blurring into illegibility. You are incapable of reading anything or making out symbols of any sort, including the words on scrolls, spellbooks, or magic items. </span></p>",
    "flags": {},
    "name": "Gruhastha",
    "permission": {
        "default": 0
    }
}
