{
    "_id": "hhV2g6aU8jKLEca1",
    "content": "<h1>Narakaas (The Cleansing Sentence) [N]</h1><p><strong>Edicts</strong> Help others through painful changes, offer harsh punishments to the penitent, seek and allow redemption</p><p><strong>Anathema</strong> Torture an unwilling creature, take joy in suffering</p><p><strong>Follower Alignments</strong> NG, LN, N</span></p><p></span></p><h2>Devotee Benefits</h2><div><div><strong>Divine Ability</strong> Constitution or Wisdom</div><div><strong>Divine Font</strong> heal</div><div><strong>Divine Skill</strong> Diplomacy</div><div><strong>Favored Weapon</strong> greataxe</div><div><strong>Domains</strong> change, death, pain, sorrow</div><div><strong>Cleric Spells</strong> 1st: endure, 2nd: slough skin, 4th: modify memory</div></div>",
    "flags": {},
    "name": "Narakaas",
    "permission": {
        "default": 0
    }
}
