{
    "_id": "YXmeBdOZfWgUljW1",
    "content": "<h1>Ylimancha (Harborwing) [NG]</h1><p>Ylimancha gazes out over the world's coastlines, presiding over coastal waters, fishers, and flying creatures. Also known as Harborwing, she believes in harmony between the seas, the skies, and the beings of the land. Sustenance and resources can be taken from the sea by those on shore, but not so much that the balance is upset. The sea may sometimes encroach on the land, but breakwaters can be built to keep communities on land dry and safe. Ylimancha likewise loves all creatures that fly, though the demon lord @Compendium[pf2e.deities.Pazuzu]{Pazuzu} also claims dominion over them, bringing the two into endless conflict and causing her to mourn deeply each creature he converts to his worship.</p><p>Harborwing most often appears as a very large seagull, pure white in color with the head of a Varisian woman with short, dark hair. She sometimes instead appears as a human woman with the head of an osprey. In this form she wears robes that sway like the waves of the sea, their blue folds foaming white at the edges, and she carries a teak longbow strung with gold. When she speaks, her voice carries the sound of the crashing waves. Followers of Ylimancha include fishers, sailors, merfolk, those who make their living on or in the sea, and flying creatures.</p><p><strong>Edicts</strong> Teach sustainable fishing, swim in saltwater, ﬂy</p><p><strong>Anathema</strong> Imprison birds or clip their wings, poison coastal waters, overﬁsh, aid Pazuzu or his minions</p><p><strong>Areas of Concern</strong> coastal waters, fishers, and flying creatures</p><p><strong>Follower Alignments</strong> LG, NG, CG, N</span></p><h2>Devotee Benefits</h2><div><div><strong>Divine Ability</strong> Dexterity or Wisdom</div><div><strong>Divine Font</strong> heal</div><div><strong>Divine Skill</strong> Acrobatics</div><div><strong>Favored Weapon</strong> longbow</div><div><strong>Domains</strong> air, nature, travel, water</div><div><strong>Cleric Spells</strong> 1st: feather fall, 3rd: feet to fins, 4th: fly</div></div>",
    "flags": {},
    "name": "Ylimancha",
    "permission": {
        "default": 0
    }
}
