{
    "_id": "6klWznsb0f2bNg3T",
    "content": "<p><strong>Deities</strong> @Compendium[pf2e.deities.Azathoth]{Azathoth}, @Compendium[pf2e.deities.Black Butterfly]{Black Butterfly}, @Compendium[pf2e.deities.Cosmic Caravan]{Cosmic Caravan}, @Compendium[pf2e.deities.Desna]{Desna}, @Compendium[pf2e.deities.Groetus]{Groetus}, @Compendium[pf2e.deities.Hastur]{Hastur}, @Compendium[pf2e.deities.Kerkamoth]{Kerkamoth}, @Compendium[pf2e.deities.Monad]{Monad}, @Compendium[pf2e.deities.Nhimbaloth]{Nhimbaloth}, @Compendium[pf2e.deities.Rovagug]{Rovagug}, @Compendium[pf2e.deities.The Path of the Heavens]{The Path of the Heavens}, @Compendium[pf2e.deities.Yog-Sothoth]{Yog-Sothoth}, @Compendium[pf2e.deities.Zon-Kuthon]{Zon-Kuthon}</p><p><strong>Domain Spell</strong> @Compendium[pf2e.spells-srd.Empty Inside]{Empty Inside}; <strong>Advanced Domain Spell</strong> @Compendium[pf2e.spells-srd.Door to Beyond]{Door to Beyond}</p><p><span id=\"ctl00_MainContent_DetailedOutput\">You draw power from emptiness.</span></p><p></p>",
    "flags": {},
    "name": "Void Domain",
    "permission": {
        "default": 0
    }
}
