{
    "_id": "MktBsoHR9HsKrbbr",
    "content": "<p><strong>Deities</strong> @Compendium[pf2e.deities.Achaekek]{Achaekek}, @Compendium[pf2e.deities.Angradd]{Angradd}, @Compendium[pf2e.deities.Baphomet]{Baphomet}, @Compendium[pf2e.deities.Belial]{Belial}, @Compendium[pf2e.deities.Cernunnos]{Cernunnos}, @Compendium[pf2e.deities.Chaldira]{Chaldira}, @Compendium[pf2e.deities.Chohar]{Chohar}, @Compendium[pf2e.deities.Dagon]{Dagon}, @Compendium[pf2e.deities.Dahak]{Dahak}, @Compendium[pf2e.deities.Diomazul]{Diomazul}, @Compendium[pf2e.deities.Eiseth]{Eiseth}, @Compendium[pf2e.deities.General Susumu]{General Susumu}, @Compendium[pf2e.deities.Gorum]{Gorum}, @Compendium[pf2e.deities.Gyronna]{Gyronna}, @Compendium[pf2e.deities.Iomedae]{Iomedae}, @Compendium[pf2e.deities.Kostchtchie]{Kostchtchie}, @Compendium[pf2e.deities.Kurgess]{Kurgess}, @Compendium[pf2e.deities.Luhar]{Luhar}, @Compendium[pf2e.deities.Milani]{Milani}, @Compendium[pf2e.deities.Ragathiel]{Ragathiel}, @Compendium[pf2e.deities.Rovagug]{Rovagug}, @Compendium[pf2e.deities.Tanagaar]{Tanagaar}, @Compendium[pf2e.deities.The Godclaw]{The Godclaw}, @Compendium[pf2e.deities.Tlehar]{Tlehar}, @Compendium[pf2e.deities.Vildeis]{Vildeis}, @Compendium[pf2e.deities.Wadjet]{Wadjet}, @Compendium[pf2e.deities.Ydersius]{Ydersius}, @Compendium[pf2e.deities.Ymeri]{Ymeri}</p><p><strong>Domain Spell</strong> @Compendium[pf2e.spells-srd.Weapon Surge]{Weapon Surge}; <strong>Advanced Domain Spell</strong> @Compendium[pf2e.spells-srd.Zeal for Battle]{Zeal for Battle}</p><p><span id=\"ctl00_MainContent_DetailedOutput\">Your inner fire increases your combat prowess.</span></p><p></p>",
    "flags": {},
    "name": "Zeal Domain",
    "permission": {
        "default": 0
    }
}
