{
    "_id": "esKk5XrnlqRayDPG",
    "data": {
        "actionCategory": {
            "value": ""
        },
        "actionType": {
            "value": "passive"
        },
        "actions": {
            "value": null
        },
        "description": {
            "value": "<p>You can tap into the magic of angels that runs through your blood. You can cast <em>@Compendium[pf2e.spells-srd.Humanoid Form]{Humanoid Form}</em> and <em>@Compendium[pf2e.spells-srd.Remove Fear]{Remove Fear}</em> each once per day as 2nd-level divine innate spells.</p>"
        },
        "featType": {
            "value": "ancestry"
        },
        "level": {
            "value": 9
        },
        "prerequisites": {
            "value": [
                {
                    "value": "Angelkin"
                }
            ]
        },
        "rules": [],
        "source": {
            "value": "Pathfinder Advanced Player's Guide"
        },
        "traits": {
            "custom": "",
            "rarity": {
                "value": "common"
            },
            "selected": {
                "aasimar": "Aasimar"
            },
            "value": [
                "aasimar"
            ]
        }
    },
    "effects": [],
    "flags": {},
    "img": "systems/pf2e/icons/features/feats/feats.webp",
    "name": "Angelic Magic",
    "type": "feat"
}
