{
    "_id": "DwnnmTNOvpLbp7jJ",
    "data": {
        "actionCategory": {
            "value": ""
        },
        "actionType": {
            "value": "free"
        },
        "actions": {
            "value": null
        },
        "description": {
            "value": "<p><strong>Access</strong> Keleshite nationality</p>\n<p><strong>Requirements</strong> You're in a settlement or community, and you haven't used Courteous Comeback in this settlement or community within the past month.</p>\n<p><strong>Trigger</strong> You critically fail a Diplomacy check.</p>\n<hr />\n<p>You grew up in the proud Padishah Empire, where even insults have a certain poetic wit. Reroll the triggering Diplomacy check, using the second result.</p>"
        },
        "featType": {
            "value": "ancestry"
        },
        "level": {
            "value": 1
        },
        "location": "",
        "prerequisites": {
            "value": []
        },
        "rules": [],
        "source": {
            "value": "Pathfinder Lost Omens: Character Guide"
        },
        "traits": {
            "custom": "",
            "rarity": {
                "value": "uncommon"
            },
            "value": [
                "human",
                "fortune"
            ]
        }
    },
    "effects": [],
    "flags": {},
    "img": "systems/pf2e/icons/features/feats/feats.webp",
    "name": "Courteous Comeback",
    "type": "feat"
}
