{
    "_id": "RxA1PdgGbijkieJD",
    "data": {
        "actionCategory": {
            "value": "defensive"
        },
        "actionType": {
            "value": "action"
        },
        "actions": {
            "value": 1
        },
        "description": {
            "value": "<p><strong>Requirements</strong> you are adjacent to at least two enemies</p>\n<hr />\n<p>Your body tenses up when surrounded, putting you on edge just enough to anticipate an attack. You gain a +1 circumstance bonus to AC until the beginning of your next turn and Step.</p>\n<p>@Compendium[pf2e.feat-effects.Effect: Defensive Instincts]{Effect: Defensive Instincts}</p>"
        },
        "featType": {
            "value": "ancestry"
        },
        "level": {
            "value": 9
        },
        "location": "",
        "prerequisites": {
            "value": []
        },
        "rules": [],
        "source": {
            "value": "Pathfinder Lost Omens: The Mwangi Expanse"
        },
        "traits": {
            "custom": "",
            "rarity": {
                "value": "common"
            },
            "value": [
                "goloma"
            ]
        }
    },
    "effects": [],
    "flags": {},
    "img": "systems/pf2e/icons/default-icons/feats.webp",
    "name": "Defensive Instincts",
    "type": "feat"
}
