{
    "_id": "Btu0tA6SEBS6K1hE",
    "data": {
        "actionCategory": {
            "value": ""
        },
        "actionType": {
            "value": "reaction"
        },
        "actions": {
            "value": null
        },
        "description": {
            "value": "<p><strong>Trigger</strong> You would gain the @Compendium[pf2e.conditionitems.Fatigued]{Fatigued} condition.</p>\n<p><strong>Requirements</strong> You are @Compendium[pf2e.conditionitems.Observed]{Observed} by at least three creatures</p>\n<p>who aren't foes.</p>\n<hr />\n<p>As long as you have an audience, you can continue to perform. Indeed, you must-you have an obligation to your fans!</p>\n<p>You delay the effects of the fatigued condition for 1 minute or until you are no longer observed by the required creatures, whichever comes first. If the fatigued condition has a duration, the duration begins to elapse only after the delay. You can't further delay or prevent the fatigued condition after this ability ends.</p>"
        },
        "featType": {
            "value": "archetype"
        },
        "level": {
            "value": 4
        },
        "prerequisites": {
            "value": [
                {
                    "value": "Celebrity Dedication"
                }
            ]
        },
        "rules": [],
        "source": {
            "value": "Pathfinder Advanced Player's Guide"
        },
        "traits": {
            "custom": "",
            "rarity": {
                "value": "common"
            },
            "value": [
                "archetype"
            ]
        }
    },
    "effects": [],
    "flags": {},
    "img": "systems/pf2e/icons/features/feats/feats.webp",
    "name": "Never Tire",
    "type": "feat"
}
