{
    "_id": "f69C05QokaBrDFjn",
    "data": {
        "actionCategory": {
            "value": ""
        },
        "actionType": {
            "value": "passive"
        },
        "actions": {
            "value": null
        },
        "description": {
            "value": "<p>Hidden darkness whispers to you, teaching you secrets of shadow beyond other spellcasters of your tradition. Add <em>@Compendium[pf2e.spells-srd.Shadow Blast]{Shadow Blast}</em>, <em>@Compendium[pf2e.spells-srd.Shadow Siphon]{Shadow Siphon}</em>, and <em>@Compendium[pf2e.spells-srd.Shadow Walk]{Shadow Walk}</em>, <em>@Compendium[pf2e.spells-srd.Replicate]{Replicate}</em>, <em>@Compendium[pf2e.spells-srd.Shadow Army]{Shadow Army}</em>, <em>@Compendium[pf2e.spells-srd.Shadow Projectile]{Shadow Projectile}</em>, and <em>@Compendium[pf2e.spells-srd.Shadow Raid]{Shadow Raid}</em> to your spell list. You can thus potentially learn these spells even if they aren't normally on your tradition's spell list.</p>"
        },
        "featType": {
            "value": "archetype"
        },
        "level": {
            "value": 4
        },
        "location": "",
        "prerequisites": {
            "value": [
                {
                    "value": "Shadowcaster Dedication"
                }
            ]
        },
        "rules": [],
        "source": {
            "value": ""
        },
        "traits": {
            "custom": "",
            "rarity": {
                "value": "common"
            },
            "value": [
                "archetype"
            ]
        }
    },
    "effects": [],
    "flags": {},
    "img": "systems/pf2e/icons/default-icons/feat.svg",
    "name": "Shadow Spells",
    "type": "feat"
}
