{
    "_id": "A7w3YQBrFNH8KYsB",
    "data": {
        "ability": {
            "value": ""
        },
        "area": {
            "areaType": "",
            "value": ""
        },
        "autoHeightenLevel": {
            "value": null
        },
        "category": {
            "value": "spell"
        },
        "components": {
            "focus": false,
            "material": false,
            "somatic": true,
            "verbal": true
        },
        "cost": {
            "value": ""
        },
        "damage": {
            "value": {}
        },
        "description": {
            "value": "<p>You split into your real self and a mirrored version of yourself that curses would-be attackers with misfortune on their next attacks. When you cast this spell, you seem to split in two. As you do, you can Step to any adjacent square. In either your initial square, or another square adjacent to your initial square, an exact illusory duplicate of you appears. You decide a simple course of action for the duplicate to follow, such as to walk to a specific point or wave its hands in the air, but more complex routines are beyond its abilities. A creature can distinguish between you and the duplicate only if it spends an action to Seek and succeeds at a Perception check against the spell's DC.</p>\n<p>If a creature takes a hostile action against the duplicate, the illusion shatters into mirrorlike shards, inflicting bad luck on the attacker's next few attacks as misfortune's toll for shattering the mirror. The attacker must attempt a Will save with the following effects; this is a curse and misfortune effect. When the duplicate shatters, the spell ends.</p>\n<hr />\n<p><strong>Success</strong> The creature is unaffected.</p>\n<p><strong>Failure</strong> Within the next hour, the creature must roll its next two attack rolls twice and take the lower result.</p>\n<p><strong>Critical Failure</strong> Within the next hour, the creature must roll its next four attack rolls twice and take the lower result.</p>"
        },
        "duration": {
            "value": "1 minute"
        },
        "hasCounteractCheck": {
            "value": false
        },
        "level": {
            "value": 4
        },
        "location": {
            "value": ""
        },
        "materials": {
            "value": ""
        },
        "range": {
            "value": ""
        },
        "rules": [],
        "save": {
            "basic": "",
            "value": "will"
        },
        "school": {
            "value": "illusion"
        },
        "source": {
            "value": "Pathfinder Secrets of Magic"
        },
        "spellType": {
            "value": "save"
        },
        "sustained": {
            "value": false
        },
        "target": {
            "value": ""
        },
        "time": {
            "value": "2"
        },
        "traditions": {
            "custom": "",
            "value": [
                "arcane",
                "occult"
            ]
        },
        "traits": {
            "custom": "",
            "rarity": {
                "value": "common"
            },
            "value": []
        }
    },
    "effects": [],
    "flags": {},
    "img": "systems/pf2e/icons/spells/mirrors-misfortune.webp",
    "name": "Mirror's Misfortune",
    "type": "spell"
}
