{
    "_id": "rFdVYKtHsZzRCsSd",
    "data": {
        "actionCategory": {
            "value": "interaction"
        },
        "actionType": {
            "value": "passive"
        },
        "actions": {
            "value": null
        },
        "description": {
            "value": "<p>Your hands and feet exude a film that helps them adhere to surfaces. You gain a +2 circumstance bonus to your Fortitude and Reflex DC against attempts to Disarm, Shove, or Trip you. When ascending trees, vines, and other foliage, if you roll a success on the Athletics check to Climb, you get a critical success instead.</p>"
        },
        "featType": {
            "value": "heritage"
        },
        "level": {
            "value": 1
        },
        "location": "",
        "prerequisites": {
            "value": []
        },
        "rules": [
            {
                "key": "FlatModifier",
                "predicate": {
                    "any": [
                        "action:disarm",
                        "action:shove",
                        "action:trip"
                    ]
                },
                "selector": "fortitude",
                "type": "circumstance",
                "value": 2
            },
            {
                "key": "FlatModifier",
                "predicate": {
                    "any": [
                        "action:disarm",
                        "action:shove",
                        "action:trip"
                    ]
                },
                "selector": "reflex",
                "type": "circumstance",
                "value": 2
            },
            {
                "adjustment": {
                    "success": "one-degree-better"
                },
                "key": "AdjustDegreeOfSuccess",
                "predicate": {
                    "all": [
                        "action:climb"
                    ]
                },
                "selector": "athletics",
                "type": "skill"
            }
        ],
        "source": {
            "value": ""
        },
        "traits": {
            "custom": "",
            "rarity": {
                "value": "common"
            },
            "value": [
                "grippli",
                "heritage"
            ]
        }
    },
    "effects": [],
    "flags": {},
    "img": "systems/pf2e/icons/default-icons/feat.svg",
    "name": "Stickytoe Grippli",
    "type": "feat"
}
