{
    "_id": "7vHLPleFpSqKAjWG",
    "data": {
        "actionCategory": {
            "value": ""
        },
        "actionType": {
            "value": "passive"
        },
        "actions": {
            "value": null
        },
        "description": {
            "value": "<p>Whether due to a blessing from Hei Feng or hatching from your egg during a squall, you are resistant to storms. You gain electricity resistance equal to half your level (minimum 1).</p>\n<p>You automatically succeed at the flat check to target a @Compendium[pf2e.conditionitems.Concealed]{Concealed} creature if that creature is concealed only by rain or fog.</p>"
        },
        "featType": {
            "value": "heritage"
        },
        "level": {
            "value": 1
        },
        "location": "",
        "prerequisites": {
            "value": []
        },
        "rules": [
            {
                "key": "Resistance",
                "type": "electricity",
                "value": "max(1,floor(@details.level.value/2))"
            }
        ],
        "source": {
            "value": "Pathfinder Advanced Player's Guide"
        },
        "traits": {
            "custom": "",
            "rarity": {
                "value": "common"
            },
            "value": [
                "tengu"
            ]
        }
    },
    "effects": [],
    "flags": {},
    "img": "systems/pf2e/icons/features/ancestry/stormtossed-tengu.webp",
    "name": "Stormtossed Tengu",
    "type": "feat"
}
