{
    "_id": "SDDbh7KmDn5HUbst",
    "data": {
        "actionCategory": {
            "value": ""
        },
        "actionType": {
            "value": "passive"
        },
        "actions": {
            "value": null
        },
        "description": {
            "value": "<p><strong>[Promotional]</strong></p>\n<p><strong>Prerequisites</strong>: Player is wearing clothing that promotes Pathfinder Society, such as a volunteer shirt, a shirt for a Pathfinder Lodge, or Pathfinder-themed cosplay</p>\n<p><strong>Cost</strong>: 0 Fame</p>\n<p><strong>Effect</strong>: When you use a Hero Point to reroll a check, add a +1 cirumstance bonus to the reroll.</p>\n<p><strong>Special</strong>: A PC can only slot one promotional boon at a time.</p>"
        },
        "featType": {
            "value": "pfsboon"
        },
        "level": {
            "value": 0
        },
        "prerequisites": {
            "value": []
        },
        "rules": [],
        "source": {
            "value": ""
        },
        "traits": {
            "custom": "",
            "rarity": {
                "value": "common"
            },
            "selected": {},
            "value": []
        }
    },
    "effects": [],
    "flags": {},
    "img": "systems/pf2e/icons/default-icons/mystery-man.webp",
    "name": "Promotional Vestments",
    "type": "feat"
}
